Loans data: first look
…
It is intresting that people more often borrow not exact amounts

but equal to whole number in thousands

df %>%
  group_by(loan_amnt) %>%
  summarise(count = n()) %>%
  arrange(desc(count))

## # A tibble: 1,334 x 2
##    loan_amnt count
##        <dbl> <int>
##  1     10000 18892
##  2     12000 14679
##  3     15000 12665
##  4     20000 11746
##  5      8000  9055
##  6      6000  8728
##  7     35000  8663
##  8      5000  8345
##  9     16000  6596
## 10     18000  6048
## # ... with 1,324 more rows
…
