Loans data: features exploration
…
The interesting thing is that Not Verified in verification_status increases chances for loan repayment.

Annual income

annual_inc - the self-reported annual income provided by the borrower during registration.

df %>%
  group_by(annual_inc) %>%
  summarise(prob = mean(result), count = n()) %>%
  arrange(desc(count))

## # A tibble: 20,264 x 3
##    annual_inc      prob count
##         <dbl>     <dbl> <int>
##  1      60000 0.7556868 10331
##  2      50000 0.7596780  9067
##  3      65000 0.7714477  7460
##  4      40000 0.7248313  7261
##  5      70000 0.7794033  6972
##  6      45000 0.7461382  6862
##  7      75000 0.7948124  6477
##  8      80000 0.7897276  6425
##  9      55000 0.7683107  6103
## 10      90000 0.8116298  4884
## # ... with 20,254 more rows
…
It isnt super high improvement but median of ratio is a little bit different between paid and not paid loans.

delinq_2yrs

delinq_2yrs - the number of 30+ days past-due incidences of delinquency in the borrowers credit file for the past 2 years.

df %>% 
  group_by(delinq_2yrs) %>%
  summarise(prob = mean(result), count = n()) %>%
  arrange(desc(count))

## # A tibble: 24 x 3
##    delinq_2yrs      prob  count
##          <int>     <dbl>  <int>
##  1           0 0.7869112 222128
##  2           1 0.7641884  30007
##  3           2 0.7424893   8388
##  4           3 0.7180946   2813
##  5           4 0.7238347   1137
##  6           5 0.7118644    590
##  7           6 0.7191781    292
##  8           7 0.6751592    157
##  9           8 0.7708333     96
## 10           9 0.7321429     56
## # ... with 14 more rows
…
